<?xml version="1.0" standalone="no"?>
<!DOCTYPE svg PUBLIC "-//W3C//DTD SVG 20010904//EN"
 "http://www.w3.org/TR/2001/REC-SVG-20010904/DTD/svg10.dtd">
<svg version="1.0" xmlns="http://www.w3.org/2000/svg"
 width="661.000000pt" height="85.000000pt" viewBox="0 0 661.000000 85.000000"
 preserveAspectRatio="xMidYMid meet">
<metadata>
Created by potrace 1.15, written by Peter Selinger 2001-2017
</metadata>
<g transform="translate(0.000000,85.000000) scale(0.100000,-0.100000)"
fill="#000000" stroke="none">
<path d="M0 600 l0 -250 24 0 c14 0 1382 -79 3042 -175 1660 -96 3040 -175
3067 -175 48 0 56 5 263 156 l214 156 0 255 0 254 -137 -72 c-76 -40 -177 -93
-224 -118 l-86 -46 -3069 133 c-1688 73 -3075 133 -3081 133 -10 -1 -13 -58
-13 -251z"/>
</g>
</svg>
